%YAML 1.1
%TAG !u! tag:unity3d.com,2011:
--- !u!78 &1
TagManager:
  serializedVersion: 2
  tags: []
  layers:
  - Default
  - TransparentFX
  - Ignore Raycast
  - 
  - Water
  - UI
  - Player
  - Enemy
  - ProjectilesEnemy
  - Hazards
  - Background
  - ProjectilesPlayer
  - Particles
  - 
  - 
  - 
  - 
  - 
  - 
  - 
  - 
  - 
  - 
  - 
  - 
  - 
  - 
  - 
  - 
  - 
  - 
  - 
  m_SortingLayers:
  - name: Default
    uniqueID: 0
    locked: 0
  - name: Background
    uniqueID: 2277788167
    locked: 0
  - name: Hazards
    uniqueID: 3796590423
    locked: 0
  - name: ProjectilesEnemy
    uniqueID: 3774301327
    locked: 0
  - name: ProjectilesPlayer
    uniqueID: 3612597241
    locked: 0
  - name: Enemy
    uniqueID: 2573006537
    locked: 0
  - name: Player
    uniqueID: 1542208113
    locked: 0
  - name: Particles
    uniqueID: 1494912379
    locked: 0
