%YAML 1.1
%TAG !u! tag:unity3d.com,2011:
--- !u!114 &11400000
MonoBehaviour:
  m_ObjectHideFlags: 0
  m_CorrespondingSourceObject: {fileID: 0}
  m_PrefabInstance: {fileID: 0}
  m_PrefabAsset: {fileID: 0}
  m_GameObject: {fileID: 0}
  m_Enabled: 1
  m_EditorHideFlags: 0
  m_Script: {fileID: 0}
  m_Name: New WaveConfig
  m_EditorClassIdentifier: Assembly-CSharp::WaveConfig
  pathPrefab: {fileID: 8169565456110518653, guid: 50f5f44e5087c6149b37ead326af63be, type: 3}
  moveSpeed: 5
